{
	"Главная" : {
		"link" : "index.php",
		"template_name" : "null",
		"cache_name" : null,
		"child" : null
	},
	"Сведения об образовательной организации" : {
		"link" : "#",
		"template_name" : "something",
		"cache_name" : "something",
		"child" : { 
			"Основные сведения" : {
				"link" : "index.php?page=osn_sved",
				"template_name" : "osn_sved.html",
				"cache_name" : "osn_sved"
			},
			"Структура и органы управления образовательной организацией" : {
				"link" : "index.php?page=struktura",
				"template_name" : "struktura.html",
				"cache_name" : "struktura"
			},
			"Документы" : {
				"link" : "index.php?page=docs",
				"template_name" : "docs.html",
				"cache_name" : "docs"
			},
			"Образование" : {
				"link" : "index.php?page=obrazovanie",
				"template_name" : "obrazovanie.html",
				"cache_name" : "obrazovanie"
			},
			"Образовательные стандарты" : {
				"link" : "index.php?page=obr_std",
				"template_name" : "obr_std.html",
				"cache_name" : "obr_std"
			},
			"Руководство. Педагогический (научно-педагогический) состав" : {
				"link" : "index.php?page=pedagogi",
				"template_name" : "pedagogi.html",
				"cache_name" : "pedagogi"
			},
			"Материально-техническое обеспечение и оснащенность образовательного процесса" : {
				"link" : "index.php?page=mtb",
				"template_name" : "mtb.html",
				"cache_name" : "mtb"
			},
			"Стипендии и иные виды материальной поддержки" : {
				"link" : "index.php?page=mat_help",
				"template_name" : "mat_help.html",
				"cache_name" : "mat_help"
			},
			"Платные образовательные услуги" : {
				"link" : "index.php?page=payment_learn",
				"template_name" : "payment_learn.html",
				"cache_name" : "payment_learn"
			},
			"Финансово-хозяйственная деятельность" : {
				"link" : "index.php?page=finhoz",
				"template_name" : "finhoz.html",
				"cache_name" : "finhoz"
			},
			"Вакантные места для приема (перевода)" : {
				"link" : "index.php?page=vak_places",
				"template_name" : "vak_places.html",
				"cache_name" : "vak_places"
			}
		}
	},
	"Абитуриенту" : {
		"link" : "#",
		"template_name" : "something",
		"cache_name" : "something",
		"child" : { 
			"Приёмная комиссия" : {
				"link" : "index.php?page=priem_kom",
				"template_name" : "priem_kom.html",
				"cache_name" : "priem_kom"
			},
			"Правила приёма" : {
				"link" : "index.php?page=prav_priem",
				"template_name" : "prav_priem.html",
				"cache_name" : "prav_priem"
			},
			"Порядок приёма" : {
				"link" : "index.php?page=poryad_priem",
				"template_name" : "poryad_priem.html",
				"cache_name" : "poryad_priem"
			},
			"Условия приёма на платное обучение" : {
				"link" : "index.php?page=usl_priem",
				"template_name" : "usl_priem.html",
				"cache_name" : "usl_priem"
			},
			"Перечень специальностей" : {
				"link" : "index.php?page=perech_spec",
				"template_name" : "perech_spec.html",
				"cache_name" : "perech_spec"
			},
			"Приём документов по почте" : {
				"link" : "index.php?page=priem_po_pochte",
				"template_name" : "priem_po_pochte.html",
				"cache_name" : "priem_po_pochte"
			},
			"Медицинский осмотр" : {
				"link" : "index.php?page=med_osm",
				"template_name" : "med_osm.html",
				"cache_name" : "med_osm"
			},
			"Количество мест для приёма" : {
				"link" : "index.php?page=kol_vo_for_priem",
				"template_name" : "kol_vo_for_priem.html",
				"cache_name" : "kol_vo_for_priem"
			},
			"Документы по приёму" : {
				"link" : "index.php?page=priem_docs",
				"template_name" : "priem_docs.html",
				"cache_name" : "priem_docs"
			},
			"Сроки подачи заявлений" : {
				"link" : "index.php?page=srok_podach_zayavl",
				"template_name" : "srok_podach_zayavl.html",
				"cache_name" : "srok_podach_zayavl"
			},
			"Стоимость платного обучения" : {
				"link" : "index.php?page=stoim_payment_learn",
				"template_name" : "stoim_payment_learn.html",
				"cache_name" : "stoim_payment_learn"
			},
			"Количество поданных заявлений" : {
				"link" : "index.php?page=kol_vo_pod_zayavl",
				"template_name" : "kol_vo_pod_zayavl.html",
				"cache_name" : "kol_vo_pod_zayavl"
			},
			"Итоги приёма" : {
				"link" : "index.php?page=priem_itogi",
				"template_name" : "priem_itogi.html",
				"cache_name" : "priem_itogi"
			},
			"Количество мест по договорам" : {
				"link" : "index.php?page=kol_vo_mest_by_dog",
				"template_name" : "kol_vo_mest_by_dog.html",
				"cache_name" : "kol_vo_mest_by_dog"
			},
			"Подготовительные курсы" : {
				"link" : "index.php?page=podg_kursi",
				"template_name" : "podg_kursi.html",
				"cache_name" : "podg_kursi"
			},
			"Информация о новой специальности" : {
				"link" : "index.php?page=inf_o_new_spec",
				"template_name" : "inf_o_new_spec.html",
				"cache_name" : "inf_o_new_spec"
			}
		}
	},
	"Студенту" : {
		"link" : "#",
		"template_name" : "something",
		"cache_name" : "something",
		"child" : { 
			"Правила внутреннего распорядка" : {
				"link" : "index.php?page=prav_vnut_rasp",
				"template_name" : "prav_vnut_rasp.html",
				"cache_name" : "prav_vnut_rasp"
			},
			"Расписание звонков" : {
				"link" : "index.php?page=calls_rasp",
				"template_name" : "calls_rasp.html",
				"cache_name" : "calls_rasp"
			},
			"Расписание (очное и заочное отделение)" : {
				"link" : "index.php?page=och_zaoch_rasp",
				"template_name" : "och_zaoch_rasp.html",
				"cache_name" : "och_zaoch_rasp"
			},
			"График учебного процесса" : {
				"link" : "index.php?page=graph_uch_proc",
				"template_name" : "graph_uch_proc.html",
				"cache_name" : "graph_uch_proc"
			},
			"Студенту – заочнику (электронные ресурсы)" : {
				"link" : "index.php?page=el_res_zaoch",
				"template_name" : "el_res_zaoch.html",
				"cache_name" : "el_res_zaoch"
			}
		}
	}
}